{
  "development": {
    "username": "admin",
    "password": "tango",
    "database": "tango",
    "host": "ExpressApiDb",
    "dialect": "mysql"
  },
  "test": {
    "username": "admin",
    "password": "tango",
    "database": "tango",
    "host": "ExpressApiDb",
    "dialect": "mysql"
  },
  "production": {
    "username": "admin",
    "password": "tango",
    "database": "tango",
    "host": "ExpressApiDb",
    "dialect": "mysql"
  }
}
